main\java\com\mycompany\mavenproject1\CorsConfig$1.class
main\java\com\mycompany\mavenproject1\CorsConfig.class
com\mycompany\mavenproject1\Login$1.class
com\mycompany\mavenproject1\Mavenproject1.class
com\mycompany\mavenproject1\Login.class
com\mycompany\mavenproject1\Msp.class
